EESchema Schematic File Version 4
EELAYER 30 0
EELAYER END
$Descr A4 11693 8268
encoding utf-8
Sheet 1 1
Title ""
Date ""
Rev ""
Comp ""
Comment1 ""
Comment2 ""
Comment3 ""
Comment4 ""
$EndDescr
$Comp
L RobotDyn:ESP-8266-CP2104 ESP-8266-CP2104?
U 1 1 5E7032C8
P 2450 1500
F 0 "ESP-8266-CP2104?" H 2450 1950 50  0001 C CNN
F 1 "ESP-8266-CP2104" H 2450 2073 50  0000 C CNN
F 2 "" H 3000 1450 50  0001 C CNN
F 3 "" H 3000 1450 50  0001 C CNN
	1    2450 1500
	1    0    0    -1  
$EndComp
$Comp
L Connector_Generic:Conn_01x02 J6
U 1 1 5E703E39
P 1650 7000
F 0 "J6" H 1568 7217 50  0000 C CNN
F 1 "Doorbell" H 1568 7126 50  0000 C CNN
F 2 "" H 1650 7000 50  0001 C CNN
F 3 "~" H 1650 7000 50  0001 C CNN
	1    1650 7000
	-1   0    0    -1  
$EndComp
$Comp
L Connector_Generic:Conn_01x02 J1
U 1 1 5E703A0A
P 950 1050
F 0 "J1" H 868 1267 50  0000 C CNN
F 1 "Power 5V" H 868 1176 50  0000 C CNN
F 2 "" H 950 1050 50  0001 C CNN
F 3 "~" H 950 1050 50  0001 C CNN
	1    950  1050
	-1   0    0    -1  
$EndComp
$Comp
L power:Earth #PWR?
U 1 1 5E705B0E
P 1150 1450
F 0 "#PWR?" H 1150 1200 50  0001 C CNN
F 1 "Earth" H 1150 1300 50  0001 C CNN
F 2 "" H 1150 1450 50  0001 C CNN
F 3 "~" H 1150 1450 50  0001 C CNN
	1    1150 1450
	1    0    0    -1  
$EndComp
$Comp
L Connector_Generic:Conn_01x02 J4
U 1 1 5E706754
P 3600 7000
F 0 "J4" H 3518 7217 50  0000 C CNN
F 1 "Factory Reset" H 3518 7126 50  0000 C CNN
F 2 "" H 3600 7000 50  0001 C CNN
F 3 "~" H 3600 7000 50  0001 C CNN
	1    3600 7000
	-1   0    0    -1  
$EndComp
$Comp
L Connector_Generic:Conn_01x02 J5
U 1 1 5E7069CB
P 5600 7000
F 0 "J5" H 5518 7217 50  0000 C CNN
F 1 "Reset" H 5518 7126 50  0000 C CNN
F 2 "" H 5600 7000 50  0001 C CNN
F 3 "~" H 5600 7000 50  0001 C CNN
	1    5600 7000
	-1   0    0    -1  
$EndComp
$Comp
L power:Earth #PWR?
U 1 1 5E7073CA
P 5800 7100
F 0 "#PWR?" H 5800 6850 50  0001 C CNN
F 1 "Earth" H 5800 6950 50  0001 C CNN
F 2 "" H 5800 7100 50  0001 C CNN
F 3 "~" H 5800 7100 50  0001 C CNN
	1    5800 7100
	1    0    0    -1  
$EndComp
Wire Wire Line
	1150 1150 1150 1450
$Comp
L power:Earth #PWR?
U 1 1 5E70C74E
P 3200 2000
F 0 "#PWR?" H 3200 1750 50  0001 C CNN
F 1 "Earth" H 3200 1850 50  0001 C CNN
F 2 "" H 3200 2000 50  0001 C CNN
F 3 "~" H 3200 2000 50  0001 C CNN
	1    3200 2000
	1    0    0    -1  
$EndComp
$Comp
L Connector_Generic:Conn_01x03 J2
U 1 1 5E711535
P 950 3650
F 0 "J2" H 868 3967 50  0000 C CNN
F 1 "Stepdown 3.3V" H 868 3876 50  0000 C CNN
F 2 "" H 950 3650 50  0001 C CNN
F 3 "~" H 950 3650 50  0001 C CNN
	1    950  3650
	-1   0    0    -1  
$EndComp
Wire Wire Line
	1150 1050 1500 1050
Wire Wire Line
	1500 3550 1150 3550
Wire Wire Line
	1850 1850 1850 3850
Wire Wire Line
	1150 3850 1150 3750
Wire Wire Line
	1150 3850 1850 3850
Wire Wire Line
	1500 1050 1500 2000
Wire Wire Line
	1500 3000 650  3000
Connection ~ 1500 3000
Wire Wire Line
	1500 3000 1500 3550
$Comp
L Device:R R7
U 1 1 5E721038
P 2150 6500
F 0 "R7" V 2357 6500 50  0000 C CNN
F 1 "10K" V 2266 6500 50  0000 C CNN
F 2 "" V 2080 6500 50  0001 C CNN
F 3 "~" H 2150 6500 50  0001 C CNN
	1    2150 6500
	0    -1   -1   0   
$EndComp
$Comp
L Device:R R8
U 1 1 5E72A1BA
P 4150 6500
F 0 "R8" V 4357 6500 50  0000 C CNN
F 1 "10K" V 4266 6500 50  0000 C CNN
F 2 "" V 4080 6500 50  0001 C CNN
F 3 "~" H 4150 6500 50  0001 C CNN
	1    4150 6500
	0    -1   -1   0   
$EndComp
$Comp
L Device:R R9
U 1 1 5E72A545
P 6150 6500
F 0 "R9" V 6357 6500 50  0000 C CNN
F 1 "10K" V 6266 6500 50  0000 C CNN
F 2 "" V 6080 6500 50  0001 C CNN
F 3 "~" H 6150 6500 50  0001 C CNN
	1    6150 6500
	0    -1   -1   0   
$EndComp
Wire Wire Line
	6300 6500 6300 7000
Wire Wire Line
	4300 6500 4300 7000
Wire Wire Line
	2300 6500 2300 7000
$Comp
L power:Earth #PWR?
U 1 1 5E72D46F
P 3800 7100
F 0 "#PWR?" H 3800 6850 50  0001 C CNN
F 1 "Earth" H 3800 6950 50  0001 C CNN
F 2 "" H 3800 7100 50  0001 C CNN
F 3 "~" H 3800 7100 50  0001 C CNN
	1    3800 7100
	1    0    0    -1  
$EndComp
$Comp
L power:Earth #PWR?
U 1 1 5E72DAC7
P 1850 7100
F 0 "#PWR?" H 1850 6850 50  0001 C CNN
F 1 "Earth" H 1850 6950 50  0001 C CNN
F 2 "" H 1850 7100 50  0001 C CNN
F 3 "~" H 1850 7100 50  0001 C CNN
	1    1850 7100
	1    0    0    -1  
$EndComp
$Comp
L power:Earth #PWR?
U 1 1 5E714792
P 1500 3650
F 0 "#PWR?" H 1500 3400 50  0001 C CNN
F 1 "Earth" H 1500 3500 50  0001 C CNN
F 2 "" H 1500 3650 50  0001 C CNN
F 3 "~" H 1500 3650 50  0001 C CNN
	1    1500 3650
	1    0    0    -1  
$EndComp
Wire Wire Line
	1150 3650 1500 3650
Wire Wire Line
	2300 7000 1850 7000
Wire Wire Line
	4300 7000 3800 7000
Wire Wire Line
	6300 7000 5800 7000
Wire Wire Line
	4000 6500 3750 6500
Wire Wire Line
	3000 6500 3000 7500
Wire Wire Line
	3000 7500 1000 7500
Wire Wire Line
	6000 6500 5750 6500
Wire Wire Line
	5000 6500 5000 7500
Wire Wire Line
	5000 7500 3000 7500
Connection ~ 3000 7500
$Comp
L Timer:NE555 U2
U 1 1 5E75115E
P 4700 5000
F 0 "U2" V 4746 4556 50  0000 R CNN
F 1 "NE555" V 4655 4556 50  0000 R CNN
F 2 "" H 4700 5000 50  0001 C CNN
F 3 "http://www.ti.com/lit/ds/symlink/ne555.pdf" H 4700 5000 50  0001 C CNN
	1    4700 5000
	0    -1   -1   0   
$EndComp
$Comp
L Timer:NE555 U3
U 1 1 5E755F33
P 6700 5000
F 0 "U3" V 6746 4556 50  0000 R CNN
F 1 "NE555" V 6655 4556 50  0000 R CNN
F 2 "" H 6700 5000 50  0001 C CNN
F 3 "http://www.ti.com/lit/ds/symlink/ne555.pdf" H 6700 5000 50  0001 C CNN
	1    6700 5000
	0    -1   -1   0   
$EndComp
$Comp
L Timer:NE555 U1
U 1 1 5E755571
P 2700 5000
F 0 "U1" V 2746 4556 50  0000 R CNN
F 1 "NE555" V 2655 4556 50  0000 R CNN
F 2 "" H 2700 5000 50  0001 C CNN
F 3 "http://www.ti.com/lit/ds/symlink/ne555.pdf" H 2700 5000 50  0001 C CNN
	1    2700 5000
	0    -1   -1   0   
$EndComp
Wire Wire Line
	6500 5500 6500 6500
Wire Wire Line
	6500 6500 6300 6500
Connection ~ 6300 6500
Wire Wire Line
	4300 6500 4500 6500
Wire Wire Line
	4500 6500 4500 5500
Connection ~ 4300 6500
Wire Wire Line
	2300 6500 2500 6500
Wire Wire Line
	2500 6500 2500 5500
Connection ~ 2300 6500
Wire Wire Line
	4300 5000 4000 5000
Wire Wire Line
	3750 5000 3750 6500
Connection ~ 3750 6500
Wire Wire Line
	3750 6500 3000 6500
Wire Wire Line
	6300 5000 6000 5000
Wire Wire Line
	5750 5000 5750 6500
Connection ~ 5750 6500
Wire Wire Line
	5750 6500 5000 6500
Wire Wire Line
	2300 5000 1750 5000
Wire Wire Line
	1750 5000 1750 6500
Connection ~ 1750 6500
Wire Wire Line
	1750 6500 2000 6500
Wire Wire Line
	1000 7500 1000 6500
Connection ~ 1000 7500
Wire Wire Line
	1000 7500 650  7500
Wire Wire Line
	1000 6500 1750 6500
Wire Wire Line
	650  3000 650  3900
Wire Wire Line
	2700 5500 2900 5500
Wire Wire Line
	4700 5500 4900 5500
Wire Wire Line
	6700 5500 6900 5500
$Comp
L Device:LED D3
U 1 1 5E772102
P 1350 2000
F 0 "D3" H 1343 2216 50  0000 C CNN
F 1 "LED" H 1343 2125 50  0000 C CNN
F 2 "" H 1350 2000 50  0001 C CNN
F 3 "~" H 1350 2000 50  0001 C CNN
	1    1350 2000
	1    0    0    -1  
$EndComp
Connection ~ 1500 2000
Wire Wire Line
	1500 2000 1500 3000
$Comp
L Device:R R6
U 1 1 5E772B3E
P 1000 2350
F 0 "R6" H 1070 2396 50  0000 L CNN
F 1 "470R" H 1070 2305 50  0000 L CNN
F 2 "" V 930 2350 50  0001 C CNN
F 3 "~" H 1000 2350 50  0001 C CNN
	1    1000 2350
	1    0    0    -1  
$EndComp
$Comp
L power:Earth #PWR?
U 1 1 5E7733A1
P 1000 2500
F 0 "#PWR?" H 1000 2250 50  0001 C CNN
F 1 "Earth" H 1000 2350 50  0001 C CNN
F 2 "" H 1000 2500 50  0001 C CNN
F 3 "~" H 1000 2500 50  0001 C CNN
	1    1000 2500
	1    0    0    -1  
$EndComp
Wire Wire Line
	1200 2000 1000 2000
Wire Wire Line
	1000 2000 1000 2200
Wire Wire Line
	2700 4500 2900 4500
Wire Wire Line
	4700 4500 4900 4500
Wire Wire Line
	6700 4500 6900 4500
$Comp
L Device:R R10
U 1 1 5E782EA4
P 2700 4350
F 0 "R10" H 2770 4396 50  0000 L CNN
F 1 "1M" H 2770 4305 50  0000 L CNN
F 2 "" V 2630 4350 50  0001 C CNN
F 3 "~" H 2700 4350 50  0001 C CNN
	1    2700 4350
	1    0    0    -1  
$EndComp
Connection ~ 2700 4500
$Comp
L Device:R R11
U 1 1 5E78365B
P 4700 4350
F 0 "R11" H 4770 4396 50  0000 L CNN
F 1 "1M" H 4770 4305 50  0000 L CNN
F 2 "" V 4630 4350 50  0001 C CNN
F 3 "~" H 4700 4350 50  0001 C CNN
	1    4700 4350
	1    0    0    -1  
$EndComp
Connection ~ 4700 4500
$Comp
L Device:R R12
U 1 1 5E783AAF
P 6700 4350
F 0 "R12" H 6770 4396 50  0000 L CNN
F 1 "1M" H 6770 4305 50  0000 L CNN
F 2 "" V 6630 4350 50  0001 C CNN
F 3 "~" H 6700 4350 50  0001 C CNN
	1    6700 4350
	1    0    0    -1  
$EndComp
Connection ~ 6700 4500
$Comp
L Device:C C1
U 1 1 5E78508A
P 3500 4650
F 0 "C1" H 3615 4696 50  0000 L CNN
F 1 "0.1µF" H 3615 4605 50  0000 L CNN
F 2 "" H 3538 4500 50  0001 C CNN
F 3 "~" H 3500 4650 50  0001 C CNN
	1    3500 4650
	1    0    0    -1  
$EndComp
$Comp
L Device:C C2
U 1 1 5E788B3B
P 5500 4650
F 0 "C2" H 5615 4696 50  0000 L CNN
F 1 "0.1µF" H 5615 4605 50  0000 L CNN
F 2 "" H 5538 4500 50  0001 C CNN
F 3 "~" H 5500 4650 50  0001 C CNN
	1    5500 4650
	1    0    0    -1  
$EndComp
$Comp
L Device:C C3
U 1 1 5E789E81
P 7500 4650
F 0 "C3" H 7615 4696 50  0000 L CNN
F 1 "0.1µF" H 7615 4605 50  0000 L CNN
F 2 "" H 7538 4500 50  0001 C CNN
F 3 "~" H 7500 4650 50  0001 C CNN
	1    7500 4650
	1    0    0    -1  
$EndComp
$Comp
L power:Earth #PWR?
U 1 1 5E78B020
P 3500 5500
F 0 "#PWR?" H 3500 5250 50  0001 C CNN
F 1 "Earth" H 3500 5350 50  0001 C CNN
F 2 "" H 3500 5500 50  0001 C CNN
F 3 "~" H 3500 5500 50  0001 C CNN
	1    3500 5500
	1    0    0    -1  
$EndComp
$Comp
L power:Earth #PWR?
U 1 1 5E78BFB5
P 5500 5500
F 0 "#PWR?" H 5500 5250 50  0001 C CNN
F 1 "Earth" H 5500 5350 50  0001 C CNN
F 2 "" H 5500 5500 50  0001 C CNN
F 3 "~" H 5500 5500 50  0001 C CNN
	1    5500 5500
	1    0    0    -1  
$EndComp
$Comp
L power:Earth #PWR?
U 1 1 5E78D62D
P 7500 5500
F 0 "#PWR?" H 7500 5250 50  0001 C CNN
F 1 "Earth" H 7500 5350 50  0001 C CNN
F 2 "" H 7500 5500 50  0001 C CNN
F 3 "~" H 7500 5500 50  0001 C CNN
	1    7500 5500
	1    0    0    -1  
$EndComp
Wire Wire Line
	7500 4800 7500 5500
Wire Wire Line
	7500 4500 6900 4500
Connection ~ 6900 4500
Wire Wire Line
	5500 4500 4900 4500
Connection ~ 4900 4500
Wire Wire Line
	5500 4800 5500 5500
Wire Wire Line
	3500 5500 3500 4800
Wire Wire Line
	3500 4500 2900 4500
Connection ~ 2900 4500
Wire Wire Line
	4700 4200 6000 4200
Wire Wire Line
	6000 4200 6000 5000
Connection ~ 6000 5000
Wire Wire Line
	6000 5000 5750 5000
Wire Wire Line
	4000 4200 4000 5000
Connection ~ 4000 5000
Wire Wire Line
	4000 5000 3750 5000
Wire Wire Line
	6700 4200 8000 4200
Wire Wire Line
	8000 4200 8000 6000
Wire Wire Line
	8000 6000 6700 6000
Wire Wire Line
	6700 6000 6700 7500
Wire Wire Line
	6700 7500 5000 7500
Connection ~ 5000 7500
Wire Wire Line
	2700 4200 4000 4200
$Comp
L Device:R R13
U 1 1 5E7AAC20
P 2500 4350
F 0 "R13" H 2431 4304 50  0000 R CNN
F 1 "2K2" H 2431 4395 50  0000 R CNN
F 2 "" V 2430 4350 50  0001 C CNN
F 3 "~" H 2500 4350 50  0001 C CNN
	1    2500 4350
	1    0    0    1   
$EndComp
$Comp
L Device:R R14
U 1 1 5E7AEDB3
P 4500 4350
F 0 "R14" H 4431 4304 50  0000 R CNN
F 1 "2K2" H 4431 4395 50  0000 R CNN
F 2 "" V 4430 4350 50  0001 C CNN
F 3 "~" H 4500 4350 50  0001 C CNN
	1    4500 4350
	1    0    0    1   
$EndComp
$Comp
L Device:R R15
U 1 1 5E7B0630
P 6500 4350
F 0 "R15" H 6431 4304 50  0000 R CNN
F 1 "2K2" H 6431 4395 50  0000 R CNN
F 2 "" V 6430 4350 50  0001 C CNN
F 3 "~" H 6500 4350 50  0001 C CNN
	1    6500 4350
	1    0    0    1   
$EndComp
$Comp
L Device:Q_NPN_BCE Q1
U 1 1 5E7C6187
P 2500 3800
F 0 "Q1" V 2828 3800 50  0000 C CNN
F 1 "Q_NPN_BCE" V 2737 3800 50  0000 C CNN
F 2 "" H 2700 3900 50  0001 C CNN
F 3 "~" H 2500 3800 50  0001 C CNN
	1    2500 3800
	0    -1   -1   0   
$EndComp
$Comp
L Connector_Generic:Conn_01x03 J3
U 1 1 5E7D1483
P 950 4300
F 0 "J3" H 868 4617 50  0000 C CNN
F 1 "Stepdown 3.3V" H 868 4526 50  0000 C CNN
F 2 "" H 950 4300 50  0001 C CNN
F 3 "~" H 950 4300 50  0001 C CNN
	1    950  4300
	-1   0    0    -1  
$EndComp
$Comp
L power:Earth #PWR?
U 1 1 5E7D3DA1
P 1500 4300
F 0 "#PWR?" H 1500 4050 50  0001 C CNN
F 1 "Earth" H 1500 4150 50  0001 C CNN
F 2 "" H 1500 4300 50  0001 C CNN
F 3 "~" H 1500 4300 50  0001 C CNN
	1    1500 4300
	1    0    0    -1  
$EndComp
Wire Wire Line
	1150 4300 1500 4300
Wire Wire Line
	1150 4200 1500 4200
Wire Wire Line
	1500 4200 1500 3900
Wire Wire Line
	1500 3900 650  3900
Connection ~ 650  3900
Wire Wire Line
	650  3900 650  7500
Wire Wire Line
	1150 4400 1150 4500
Wire Wire Line
	1150 4500 2050 4500
Wire Wire Line
	2050 3700 2300 3700
Wire Wire Line
	2500 4200 2500 4000
$Comp
L Device:Q_NPN_BCE Q3
U 1 1 5E7E50CC
P 6500 3800
F 0 "Q3" V 6828 3800 50  0000 C CNN
F 1 "Q_NPN_BCE" V 6737 3800 50  0000 C CNN
F 2 "" H 6700 3900 50  0001 C CNN
F 3 "~" H 6500 3800 50  0001 C CNN
	1    6500 3800
	0    -1   -1   0   
$EndComp
Wire Wire Line
	6500 4200 6500 4000
$Comp
L Device:Q_NPN_BCE Q2
U 1 1 5E7E318F
P 4500 3800
F 0 "Q2" V 4828 3800 50  0000 C CNN
F 1 "Q_NPN_BCE" V 4737 3800 50  0000 C CNN
F 2 "" H 4700 3900 50  0001 C CNN
F 3 "~" H 4500 3800 50  0001 C CNN
	1    4500 3800
	0    -1   -1   0   
$EndComp
Wire Wire Line
	2050 3700 2050 3950
Connection ~ 2050 3950
Wire Wire Line
	2050 3950 2050 4500
Wire Wire Line
	2050 3950 4000 3950
Wire Wire Line
	4000 3950 4000 3700
Wire Wire Line
	4000 3700 4300 3700
Connection ~ 4000 3950
Wire Wire Line
	4000 3950 6000 3950
Wire Wire Line
	6300 3700 6000 3700
Wire Wire Line
	6000 3700 6000 3950
$Comp
L Device:D D4
U 1 1 5E80A7DD
P 3150 3700
F 0 "D4" H 3150 3484 50  0000 C CNN
F 1 "C2" H 3150 3575 50  0000 C CNN
F 2 "" H 3150 3700 50  0001 C CNN
F 3 "~" H 3150 3700 50  0001 C CNN
	1    3150 3700
	-1   0    0    1   
$EndComp
Wire Wire Line
	2700 3700 3000 3700
$Comp
L Device:D D5
U 1 1 5E8190F2
P 5150 3700
F 0 "D5" H 5150 3484 50  0000 C CNN
F 1 "C2" H 5150 3575 50  0000 C CNN
F 2 "" H 5150 3700 50  0001 C CNN
F 3 "~" H 5150 3700 50  0001 C CNN
	1    5150 3700
	-1   0    0    1   
$EndComp
$Comp
L Device:D D6
U 1 1 5E81C5B3
P 7850 3700
F 0 "D6" H 7850 3484 50  0000 C CNN
F 1 "C2" H 7850 3575 50  0000 C CNN
F 2 "" H 7850 3700 50  0001 C CNN
F 3 "~" H 7850 3700 50  0001 C CNN
	1    7850 3700
	-1   0    0    1   
$EndComp
Wire Wire Line
	5000 3700 4700 3700
$Comp
L Device:Q_NPN_BCE Q4
U 1 1 5E82698F
P 8000 950
F 0 "Q4" V 8328 950 50  0000 C CNN
F 1 "Q_NPN_BCE" V 8237 950 50  0000 C CNN
F 2 "" H 8200 1050 50  0001 C CNN
F 3 "~" H 8000 950 50  0001 C CNN
	1    8000 950 
	0    -1   -1   0   
$EndComp
Wire Wire Line
	8000 1150 8000 3700
Wire Wire Line
	1850 1150 1850 850 
$Comp
L power:Earth #PWR?
U 1 1 5E85D369
P 8450 1000
F 0 "#PWR?" H 8450 750 50  0001 C CNN
F 1 "Earth" H 8450 850 50  0001 C CNN
F 2 "" H 8450 1000 50  0001 C CNN
F 3 "~" H 8450 1000 50  0001 C CNN
	1    8450 1000
	1    0    0    -1  
$EndComp
Wire Wire Line
	8200 850  8450 850 
Wire Wire Line
	8450 850  8450 1000
$Comp
L Device:R R3
U 1 1 5E873404
P 5500 1200
F 0 "R3" H 5430 1154 50  0000 R CNN
F 1 "470R" H 5430 1245 50  0000 R CNN
F 2 "" V 5430 1200 50  0001 C CNN
F 3 "~" H 5500 1200 50  0001 C CNN
	1    5500 1200
	-1   0    0    1   
$EndComp
$Comp
L power:Earth #PWR?
U 1 1 5E87340A
P 7000 1000
F 0 "#PWR?" H 7000 750 50  0001 C CNN
F 1 "Earth" H 7000 850 50  0001 C CNN
F 2 "" H 7000 1000 50  0001 C CNN
F 3 "~" H 7000 1000 50  0001 C CNN
	1    7000 1000
	1    0    0    -1  
$EndComp
Wire Wire Line
	5300 3700 5500 3700
Wire Wire Line
	5500 3700 5500 1450
Wire Wire Line
	5500 1450 3050 1450
Wire Wire Line
	5500 1450 5500 1350
Connection ~ 5500 1450
$Comp
L Device:R R4
U 1 1 5E94F92F
P 6350 1350
F 0 "R4" V 6557 1350 50  0000 C CNN
F 1 "220R" V 6466 1350 50  0000 C CNN
F 2 "" V 6280 1350 50  0001 C CNN
F 3 "~" H 6350 1350 50  0001 C CNN
	1    6350 1350
	0    -1   -1   0   
$EndComp
$Comp
L Device:LED D?
U 1 1 5E959C96
P 5950 1350
F 0 "D?" H 5943 1095 50  0000 C CNN
F 1 "LED" H 5943 1186 50  0000 C CNN
F 2 "" H 5950 1350 50  0001 C CNN
F 3 "~" H 5950 1350 50  0001 C CNN
	1    5950 1350
	-1   0    0    1   
$EndComp
Wire Wire Line
	5500 1000 5500 1050
Wire Wire Line
	5500 1350 5800 1350
Connection ~ 5500 1350
Wire Wire Line
	6100 1350 6200 1350
Wire Wire Line
	6500 1350 6500 1000
Connection ~ 6500 1000
Wire Wire Line
	6500 1000 5500 1000
Wire Wire Line
	4500 4000 4500 4200
Wire Wire Line
	1850 850  7800 850 
Wire Wire Line
	6700 3700 7700 3700
Wire Wire Line
	6500 1000 7000 1000
Wire Wire Line
	3050 1750 3200 1750
Wire Wire Line
	3200 1750 3200 2000
Wire Wire Line
	3300 3700 3500 3700
$Comp
L Device:R R1
U 1 1 5E86FE5B
P 3500 1200
F 0 "R1" H 3430 1154 50  0000 R CNN
F 1 "470R" H 3430 1245 50  0000 R CNN
F 2 "" V 3430 1200 50  0001 C CNN
F 3 "~" H 3500 1200 50  0001 C CNN
	1    3500 1200
	-1   0    0    1   
$EndComp
$Comp
L power:Earth #PWR?
U 1 1 5E86FE61
P 4750 1000
F 0 "#PWR?" H 4750 750 50  0001 C CNN
F 1 "Earth" H 4750 850 50  0001 C CNN
F 2 "" H 4750 1000 50  0001 C CNN
F 3 "~" H 4750 1000 50  0001 C CNN
	1    4750 1000
	1    0    0    -1  
$EndComp
Wire Wire Line
	3500 1350 3500 3700
Connection ~ 3500 1350
$Comp
L Device:LED D?
U 1 1 5E90CFDA
P 3900 1350
F 0 "D?" H 3893 1095 50  0000 C CNN
F 1 "LED" H 3893 1186 50  0000 C CNN
F 2 "" H 3900 1350 50  0001 C CNN
F 3 "~" H 3900 1350 50  0001 C CNN
	1    3900 1350
	-1   0    0    1   
$EndComp
$Comp
L Device:R R2
U 1 1 5E939825
P 4300 1350
F 0 "R2" V 4507 1350 50  0000 C CNN
F 1 "220R" V 4416 1350 50  0000 C CNN
F 2 "" V 4230 1350 50  0001 C CNN
F 3 "~" H 4300 1350 50  0001 C CNN
	1    4300 1350
	0    -1   -1   0   
$EndComp
Wire Wire Line
	4750 1000 4450 1000
Wire Wire Line
	3500 1000 3500 1050
Wire Wire Line
	3500 1350 3750 1350
Wire Wire Line
	4050 1350 4150 1350
Wire Wire Line
	4450 1350 4450 1000
Connection ~ 4450 1000
Wire Wire Line
	4450 1000 3500 1000
Wire Wire Line
	3500 1350 3050 1350
Text Notes 7350 7500 0    50   ~ 0
ESP8266 MQTT Doorbell Schematics
Text Notes 10550 7650 0    50   ~ 0
1
Text Notes 8100 7650 0    50   ~ 0
March 15th, 2020
$EndSCHEMATC
